ID a.2.7.2 c.58.1.1 d.18.1.4
d1srya1 1 4 4
d1a4ia2 4 1 4
d1b0aa2 4 1 4
d1bgva2 4 3 4
d1c1da2 4 3 4
d1edza2 4 1 4
d1gtma2 4 3 4
d1ivsa1 1 4 4
d1leha2 4 3 4
d1lrza1 1 4 4
d1luaa2 4 1 4
d1npya2 4 1 4
d1nyta2 4 1 4
d1o0sa2 4 1 4
d1pcfa_ 4 4 1
d1vi2a2 4 1 4
d1vl6a2 4 1 4
d2giaa1 4 4 3
d2giab1 4 4 3
d2it9a1 4 4 1
d2iy5a1 3 4 4
d2nvna1 4 4 1
d3mw9a2 4 3 4
